1; 3
2; 5
3; 4
4; 8
5; 3
6; 4
7; 4
8; 3
9; 4
10; 7
11; 3
1, 2; 2
1, 6; 2
1, 7; 2
1, 8; 1
1, 9; 1
2, 3; 2
2, 6; 1
2, 7; 1
2, 8; 2
2, 9; 2
2, 10; 2
3, 4; 2
3, 7; 1
3, 8; 2
3, 10; 2
4, 5; 2
4, 6; 1
4, 7; 2
4, 8; 1
4, 9; 1
4, 10; 5
4, 11; 3
5, 6; 2
5, 7; 1
5, 9; 2
5, 10; 1
6, 7; 2
6, 9; 2
7, 8; 2
9, 10; 2
10, 11; 2
1, 2, 6; 1
1, 2, 7; 1
1, 2, 8; 1
1, 2, 9; 1
1, 6, 7; 1
1, 6, 9; 1
1, 7, 8; 1
2, 3, 8; 1
2, 3, 10; 1
2, 6, 9; 1
2, 7, 8; 1
2, 9, 10; 1
3, 4, 7; 1
3, 4, 8; 1
3, 4, 10; 1
3, 7, 8; 1
4, 5, 6; 1
4, 5, 7; 1
4, 5, 9; 1
4, 5, 10; 1
4, 6, 7; 1
4, 7, 8; 1
4, 9, 10; 1
4, 10, 11; 2
5, 6, 7; 1
5, 6, 9; 1
5, 9, 10; 1
1, 2, 6, 9; 1
1, 2, 7, 8; 1
3, 4, 7, 8; 1
4, 5, 6, 7; 1
4, 5, 9, 10; 1
