1; 4
2; 3
3; 5
4; 6
5; 4
6; 3
7; 3
8; 12
9; 4
1, 2; 2
1, 3; 2
1, 7; 2
1, 8; 3
2, 7; 1
2, 8; 3
3, 4; 2
3, 7; 2
3, 8; 4
3, 9; 1
4, 5; 2
4, 8; 4
4, 9; 4
5, 6; 2
5, 8; 4
5, 9; 1
6, 8; 3
7, 8; 2
8, 9; 2
1, 2, 7; 1
1, 2, 8; 2
1, 3, 7; 1
1, 3, 8; 1
1, 7, 8; 1
2, 7, 8; 1
3, 4, 8; 2
3, 4, 9; 1
3, 7, 8; 1
3, 8, 9; 1
4, 5, 8; 2
4, 5, 9; 1
4, 8, 9; 2
5, 6, 8; 2
5, 8, 9; 1
1, 2, 7, 8; 1
3, 4, 8, 9; 1
4, 5, 8, 9; 1
