1; 4
2; 3
3; 8
4; 3
5; 5
6; 6
7; 6
8; 5
9; 3
10; 3
1, 2; 2
1, 3; 2
1, 6; 2
1, 7; 2
1, 8; 2
1, 10; 1
2, 6; 1
2, 7; 3
2, 8; 1
3, 4; 2
3, 5; 2
3, 6; 3
3, 7; 2
3, 8; 4
3, 9; 1
3, 10; 2
4, 6; 1
4, 7; 3
4, 8; 1
5, 6; 3
5, 9; 3
5, 10; 2
6, 7; 2
6, 9; 2
6, 10; 2
7, 8; 2
1, 2, 6; 1
1, 2, 7; 2
1, 2, 8; 1
1, 3, 6; 1
1, 3, 8; 1
1, 3, 10; 1
1, 6, 7; 1
1, 6, 10; 1
1, 7, 8; 1
2, 6, 7; 1
2, 7, 8; 1
3, 4, 6; 1
3, 4, 7; 2
3, 4, 8; 1
3, 5, 6; 1
3, 5, 9; 1
3, 5, 10; 1
3, 6, 7; 1
3, 6, 9; 1
3, 6, 10; 1
3, 7, 8; 1
4, 6, 7; 1
4, 7, 8; 1
5, 6, 9; 2
5, 6, 10; 1
1, 2, 6, 7; 1
1, 2, 7, 8; 1
1, 3, 6, 10; 1
3, 4, 6, 7; 1
3, 4, 7, 8; 1
3, 5, 6, 9; 1
