1; 5
2; 3
3; 8
4; 4
5; 3
6; 4
7; 8
8; 4
9; 3
10; 4
1, 2; 2
1, 3; 2
1, 6; 2
1, 7; 3
1, 8; 1
2, 6; 2
2, 7; 2
3, 4; 2
3, 5; 2
3, 6; 2
3, 7; 2
3, 8; 3
3, 9; 3
3, 10; 2
4, 7; 2
4, 8; 2
4, 9; 1
4, 10; 2
5, 6; 1
5, 7; 2
5, 10; 2
6, 7; 2
7, 8; 2
7, 10; 2
8, 9; 2
1, 2, 6; 1
1, 2, 7; 1
1, 3, 6; 1
1, 3, 7; 1
1, 3, 8; 1
1, 7, 8; 1
2, 6, 7; 1
3, 4, 8; 1
3, 4, 9; 1
3, 4, 10; 1
3, 5, 6; 1
3, 5, 7; 1
3, 5, 10; 1
3, 6, 7; 1
3, 7, 8; 1
3, 8, 9; 2
4, 7, 8; 1
4, 7, 10; 1
4, 8, 9; 1
5, 6, 7; 1
5, 7, 10; 1
1, 3, 7, 8; 1
3, 4, 8, 9; 1
3, 5, 6, 7; 1
