1; 4
2; 4
3; 3
4; 4
5; 7
6; 3
7; 4
8; 5
9; 5
10; 6
11; 3
1, 2; 2
1, 4; 2
1, 7; 2
1, 8; 1
1, 9; 1
1, 10; 2
1, 11; 1
2, 3; 2
2, 7; 1
2, 8; 2
2, 9; 2
2, 10; 1
3, 8; 2
3, 9; 2
4, 5; 2
4, 7; 1
4, 10; 2
4, 11; 2
5, 6; 2
5, 7; 2
5, 8; 2
5, 9; 2
5, 10; 3
5, 11; 2
6, 9; 1
6, 10; 3
7, 8; 2
7, 11; 2
8, 9; 2
9, 10; 2
1, 2, 7; 1
1, 2, 8; 1
1, 2, 9; 1
1, 2, 10; 1
1, 4, 7; 1
1, 4, 10; 1
1, 4, 11; 1
1, 7, 8; 1
1, 7, 11; 1
1, 9, 10; 1
2, 3, 8; 1
2, 3, 9; 1
2, 7, 8; 1
2, 9, 10; 1
3, 8, 9; 1
4, 5, 10; 1
4, 5, 11; 1
4, 7, 11; 1
5, 6, 9; 1
5, 6, 10; 2
5, 7, 8; 1
5, 7, 11; 1
5, 8, 9; 1
5, 9, 10; 1
6, 9, 10; 1
1, 2, 7, 8; 1
1, 2, 9, 10; 1
1, 4, 7, 11; 1
5, 6, 9, 10; 1
