1; 5
2; 4
3; 7
4; 4
5; 3
6; 8
7; 6
8; 3
9; 3
10; 3
1, 2; 2
1, 6; 4
1, 9; 1
1, 10; 3
2, 3; 2
2, 6; 3
2, 9; 2
3, 4; 2
3, 6; 4
3, 7; 4
3, 9; 2
4, 5; 2
4, 7; 4
4, 8; 2
5, 7; 2
5, 8; 3
6, 7; 2
6, 9; 2
6, 10; 2
7, 8; 2
1, 2, 6; 2
1, 2, 9; 1
1, 6, 9; 1
1, 6, 10; 2
2, 3, 6; 1
2, 3, 9; 1
2, 6, 9; 1
3, 4, 7; 2
3, 6, 7; 2
3, 6, 9; 1
4, 5, 7; 2
4, 5, 8; 2
4, 7, 8; 2
5, 7, 8; 2
1, 2, 6, 9; 1
4, 5, 7, 8; 2
