1; 8
2; 3
3; 5
4; 5
5; 4
6; 6
7; 3
8; 4
9; 4
10; 3
11; 3
1, 2; 2
1, 3; 2
1, 5; 4
1, 6; 4
1, 7; 2
1, 8; 1
1, 11; 3
2, 5; 1
2, 6; 2
2, 7; 2
3, 4; 2
3, 5; 1
3, 6; 3
3, 8; 4
3, 9; 2
4, 8; 2
4, 9; 4
4, 10; 3
5, 6; 2
5, 11; 2
6, 7; 2
6, 8; 2
8, 9; 2
9, 10; 2
1, 2, 5; 1
1, 2, 6; 1
1, 2, 7; 1
1, 3, 5; 1
1, 3, 6; 2
1, 3, 8; 1
1, 5, 6; 2
1, 5, 11; 2
1, 6, 7; 1
1, 6, 8; 1
2, 5, 6; 1
2, 6, 7; 1
3, 4, 8; 2
3, 4, 9; 2
3, 5, 6; 1
3, 6, 8; 2
3, 8, 9; 2
4, 8, 9; 2
4, 9, 10; 2
1, 2, 5, 6; 1
1, 3, 5, 6; 1
1, 3, 6, 8; 1
3, 4, 8, 9; 2
