1; 7
2; 6
3; 5
4; 3
5; 5
6; 3
7; 4
8; 4
9; 7
1, 2; 2
1, 3; 2
1, 5; 2
1, 6; 1
1, 7; 3
1, 8; 4
1, 9; 3
2, 5; 4
2, 6; 3
2, 7; 2
2, 8; 1
3, 4; 2
3, 8; 1
3, 9; 5
4, 9; 3
5, 6; 2
5, 7; 2
7, 8; 2
8, 9; 2
1, 2, 5; 1
1, 2, 6; 1
1, 2, 7; 1
1, 2, 8; 1
1, 3, 8; 1
1, 3, 9; 2
1, 5, 6; 1
1, 5, 7; 1
1, 7, 8; 2
1, 8, 9; 2
2, 5, 6; 2
2, 5, 7; 1
2, 7, 8; 1
3, 4, 9; 2
3, 8, 9; 1
1, 2, 5, 6; 1
1, 2, 7, 8; 1
1, 3, 8, 9; 1
